Tidyverse
…
## # A tibble: 2 x 5
##   term        estimate std.error statistic  p.value
##   <chr>          <dbl>     <dbl>     <dbl>    <dbl>
## 1 (Intercept)    2.64     0.310       8.51 3.74e-11
## 2 Sepal.Width    0.690    0.0899      7.68 6.71e-10

# broom::tidy(mod2)
# broom::tidy(mod3)

augment()

broom::augment(mod1)

## # A tibble: 50 x 8
##    Sepal.Length Sepal.Width .fitted  .resid .std.resid   .hat .sigma   .cooksd
##           <dbl>       <dbl>   <dbl>   <dbl>      <dbl>  <dbl>  <dbl>     <dbl>
##  1          5.1         3.5    5.06  0.0443     0.188  0.0207  0.241 0.000373 
##  2          4.9         3      4.71  0.190      0.813  0.0460  0.239 0.0160   
##  3          4.7         3.2    4.85 -0.149     -0.632  0.0274  0.240 0.00561  
##  4          4.6         3.1    4.78 -0.180     -0.766  0.0353  0.240 0.0107   
##  5          5           3.6    5.12 -0.125     -0.529  0.0242  0.240 0.00348  
##  6          5.4         3.9    5.33  0.0681     0.293  0.0516  0.241 0.00234  
##  7          4.6         3.4    4.99 -0.387     -1.64   0.0201  0.234 0.0275   
##  8          5           3.4    4.99  0.0133     0.0565 0.0201  0.241 0.0000327
##  9          4.4         2.9    4.64 -0.241     -1.04   0.0596  0.238 0.0345   
## 10          4.9         3.1    4.78  0.120      0.514  0.0353  0.240 0.00484  
## # ... with 40 more rows
…
augment()

mod_all.augment <- iris1 %>%
  group_by(Species) %>%
  do(fit = broom::augment(lm(Sepal.Length ~ Sepal.Width,
              data = .))) %>%
  unnest(fit) %T>%
  print()

## # A tibble: 150 x 9
##    Species Sepal.Length Sepal.Width .fitted  .resid .std.resid   .hat .sigma
##    <fct>          <dbl>       <dbl>   <dbl>   <dbl>      <dbl>  <dbl>  <dbl>
##  1 setosa           5.1         3.5    5.06  0.0443     0.188  0.0207  0.241
##  2 setosa           4.9         3      4.71  0.190      0.813  0.0460  0.239
##  3 setosa           4.7         3.2    4.85 -0.149     -0.632  0.0274  0.240
##  4 setosa           4.6         3.1    4.78 -0.180     -0.766  0.0353  0.240
##  5 setosa           5           3.6    5.12 -0.125     -0.529  0.0242  0.240
##  6 setosa           5.4         3.9    5.33  0.0681     0.293  0.0516  0.241
##  7 setosa           4.6         3.4    4.99 -0.387     -1.64   0.0201  0.234
##  8 setosa           5           3.4    4.99  0.0133     0.0565 0.0201  0.241
##  9 setosa           4.4         2.9    4.64 -0.241     -1.04   0.0596  0.238
## 10 setosa           4.9         3.1    4.78  0.120      0.514  0.0353  0.240
## # ... with 140 more rows, and 1 more variable: .cooksd <dbl>
…
